Library\Bee\artifacts\movedfrom\Unity.2D.Animation.Editor.ref.dll_11618115258185575947.movedfrom
Library\Bee\artifacts\movedfrom\Unity.2D.Animation.Runtime.ref.dll_7442030340276972016.movedfrom
Library\Bee\artifacts\movedfrom\Unity.2D.Animation.Triangle.Runtime.ref.dll_2466708177045823920.movedfrom
Library\Bee\artifacts\movedfrom\Unity.2D.Common.Editor.ref.dll_13644118841584069410.movedfrom
Library\Bee\artifacts\movedfrom\Unity.2D.Common.Runtime.ref.dll_8609069629425828841.movedfrom
Library\Bee\artifacts\movedfrom\Unity.2D.IK.Editor.ref.dll_17727106842912892987.movedfrom
Library\Bee\artifacts\movedfrom\Unity.2D.IK.Runtime.ref.dll_1653431992716178624.movedfrom
Library\Bee\artifacts\movedfrom\Unity.2D.Path.Editor.ref.dll_6357241933857299064.movedfrom
Library\Bee\artifacts\movedfrom\Unity.2D.PixelPerfect.Editor.ref.dll_5765172664106009878.movedfrom
Library\Bee\artifacts\movedfrom\Unity.2D.PixelPerfect.ref.dll_9856681549612413003.movedfrom
Library\Bee\artifacts\movedfrom\Unity.2D.Psdimporter.Editor.ref.dll_13216594725484200860.movedfrom
Library\Bee\artifacts\movedfrom\Unity.2D.Sprite.Editor.ref.dll_15977261275114544680.movedfrom
Library\Bee\artifacts\movedfrom\Unity.2D.SpriteShape.Editor.ref.dll_1940703435738714035.movedfrom
Library\Bee\artifacts\movedfrom\Unity.2D.SpriteShape.Runtime.ref.dll_13607063483196750280.movedfrom
Library\Bee\artifacts\movedfrom\Unity.2D.Tilemap.Editor.ref.dll_4858273654674696337.movedfrom
Library\Bee\artifacts\movedfrom\Unity.2D.Tilemap.Extras.Editor.ref.dll_10205161182716544682.movedfrom
Library\Bee\artifacts\movedfrom\Unity.2D.Tilemap.Extras.ref.dll_3971670665523324279.movedfrom
Library\Bee\artifacts\movedfrom\Unity.InternalAPIEditorBridge.001.ref.dll_14012374195079120638.movedfrom
Library\Bee\artifacts\movedfrom\Unity.InternalAPIEngineBridge.001.ref.dll_13038110867686256195.movedfrom
Library\Bee\artifacts\movedfrom\Unity.Mathematics.Editor.ref.dll_11106105192880348995.movedfrom
Library\Bee\artifacts\movedfrom\Unity.Mathematics.ref.dll_16784875247615350606.movedfrom
Library\Bee\artifacts\movedfrom\Unity.PlasticSCM.Editor.ref.dll_2700729535869450326.movedfrom
Library\Bee\artifacts\movedfrom\Unity.Rider.Editor.ref.dll_11193012430168537007.movedfrom
Library\Bee\artifacts\movedfrom\Unity.TextMeshPro.Editor.ref.dll_1557689244747631494.movedfrom
Library\Bee\artifacts\movedfrom\Unity.TextMeshPro.ref.dll_9557809654341403355.movedfrom
Library\Bee\artifacts\movedfrom\Unity.Timeline.Editor.ref.dll_953984715949700626.movedfrom
Library\Bee\artifacts\movedfrom\Unity.Timeline.ref.dll_7069769579887910799.movedfrom
Library\Bee\artifacts\movedfrom\Unity.VSCode.Editor.ref.dll_3902429132378491929.movedfrom
Library\Bee\artifacts\movedfrom\Unity.VisualScripting.Core.Editor.ref.dll_17134060296949054973.movedfrom
Library\Bee\artifacts\movedfrom\Unity.VisualScripting.Core.ref.dll_15518829177300997364.movedfrom
Library\Bee\artifacts\movedfrom\Unity.VisualScripting.Flow.Editor.ref.dll_7708282115428993342.movedfrom
Library\Bee\artifacts\movedfrom\Unity.VisualScripting.Flow.ref.dll_2192924542065166755.movedfrom
Library\Bee\artifacts\movedfrom\Unity.VisualScripting.State.Editor.ref.dll_16156761413022531439.movedfrom
Library\Bee\artifacts\movedfrom\Unity.VisualScripting.State.ref.dll_15643080368937755746.movedfrom
Library\Bee\artifacts\movedfrom\Unity.VisualStudio.Editor.ref.dll_4221946230532187309.movedfrom
Library\Bee\artifacts\movedfrom\UnityEditor.UI.ref.dll_5519394401220875509.movedfrom
Library\Bee\artifacts\movedfrom\UnityEngine.UI.ref.dll_648142665722821984.movedfrom
Library\Bee\artifacts\movedfrom\UnityEditor.CoreModule.dll_10347773887326177697.movedfrom
Library\Bee\artifacts\movedfrom\UnityEditor.DeviceSimulatorModule.dll_16079041608569961712.movedfrom
Library\Bee\artifacts\movedfrom\UnityEditor.dll_17807332023757000228.movedfrom
Library\Bee\artifacts\movedfrom\UnityEditor.GraphViewModule.dll_13972138239908469589.movedfrom
Library\Bee\artifacts\movedfrom\UnityEditor.PackageManagerUIModule.dll_8978982578106124221.movedfrom
Library\Bee\artifacts\movedfrom\UnityEditor.QuickSearchModule.dll_2009762427002957719.movedfrom
Library\Bee\artifacts\movedfrom\UnityEditor.SceneTemplateModule.dll_4922496648622659320.movedfrom
Library\Bee\artifacts\movedfrom\UnityEditor.UIBuilderModule.dll_1616702999912895625.movedfrom
Library\Bee\artifacts\movedfrom\UnityEditor.UIElementsModule.dll_4582004329243111229.movedfrom
Library\Bee\artifacts\movedfrom\UnityEditor.UIElementsSamplesModule.dll_13565989348337767680.movedfrom
Library\Bee\artifacts\movedfrom\UnityEditor.UIServiceModule.dll_5720064326918022307.movedfrom
Library\Bee\artifacts\movedfrom\UnityEditor.UnityConnectModule.dll_18102905637432477911.movedfrom
Library\Bee\artifacts\movedfrom\UnityEngine.AccessibilityModule.dll_8571938017968291477.movedfrom
Library\Bee\artifacts\movedfrom\UnityEngine.AIModule.dll_1938562622656687573.movedfrom
Library\Bee\artifacts\movedfrom\UnityEngine.AndroidJNIModule.dll_13681783370507738643.movedfrom
Library\Bee\artifacts\movedfrom\UnityEngine.AnimationModule.dll_10406831224818642939.movedfrom
Library\Bee\artifacts\movedfrom\UnityEngine.ARModule.dll_15301522285256150174.movedfrom
Library\Bee\artifacts\movedfrom\UnityEngine.AssetBundleModule.dll_6903260909437117577.movedfrom
Library\Bee\artifacts\movedfrom\UnityEngine.AudioModule.dll_625983272800918061.movedfrom
Library\Bee\artifacts\movedfrom\UnityEngine.ClothModule.dll_8041262291737344273.movedfrom
Library\Bee\artifacts\movedfrom\UnityEngine.ClusterInputModule.dll_8851514838939868061.movedfrom
Library\Bee\artifacts\movedfrom\UnityEngine.ClusterRendererModule.dll_16487957067215456884.movedfrom
Library\Bee\artifacts\movedfrom\UnityEngine.CoreModule.dll_12879029229868102860.movedfrom
Library\Bee\artifacts\movedfrom\UnityEngine.CrashReportingModule.dll_17259007194749648868.movedfrom
Library\Bee\artifacts\movedfrom\UnityEngine.DirectorModule.dll_13799327214873105897.movedfrom
Library\Bee\artifacts\movedfrom\UnityEngine.dll_3009707443235904265.movedfrom
Library\Bee\artifacts\movedfrom\UnityEngine.DSPGraphModule.dll_14182521763694716682.movedfrom
Library\Bee\artifacts\movedfrom\UnityEngine.GameCenterModule.dll_16729957372163182340.movedfrom
Library\Bee\artifacts\movedfrom\UnityEngine.GIModule.dll_12908285737819706863.movedfrom
Library\Bee\artifacts\movedfrom\UnityEngine.GridModule.dll_10388850820333292227.movedfrom
Library\Bee\artifacts\movedfrom\UnityEngine.HotReloadModule.dll_1275991912686635901.movedfrom
Library\Bee\artifacts\movedfrom\UnityEngine.ImageConversionModule.dll_5819489959490978408.movedfrom
Library\Bee\artifacts\movedfrom\UnityEngine.IMGUIModule.dll_4688123925473013262.movedfrom
Library\Bee\artifacts\movedfrom\UnityEngine.InputLegacyModule.dll_17371063636541872762.movedfrom
Library\Bee\artifacts\movedfrom\UnityEngine.InputModule.dll_8009009997656276689.movedfrom
Library\Bee\artifacts\movedfrom\UnityEngine.JSONSerializeModule.dll_15496091860851875615.movedfrom
Library\Bee\artifacts\movedfrom\UnityEngine.LocalizationModule.dll_13340700223599021718.movedfrom
Library\Bee\artifacts\movedfrom\UnityEngine.ParticleSystemModule.dll_4798190568381893490.movedfrom
Library\Bee\artifacts\movedfrom\UnityEngine.PerformanceReportingModule.dll_10927650585571267979.movedfrom
Library\Bee\artifacts\movedfrom\UnityEngine.Physics2DModule.dll_15929915559630546832.movedfrom
Library\Bee\artifacts\movedfrom\UnityEngine.PhysicsModule.dll_8281234720515947678.movedfrom
Library\Bee\artifacts\movedfrom\UnityEngine.ProfilerModule.dll_17421973071803047158.movedfrom
Library\Bee\artifacts\movedfrom\UnityEngine.RuntimeInitializeOnLoadManagerInitializerModule.dll_15144451896594118745.movedfrom
Library\Bee\artifacts\movedfrom\UnityEngine.ScreenCaptureModule.dll_17362743218505124737.movedfrom
Library\Bee\artifacts\movedfrom\UnityEngine.SharedInternalsModule.dll_15335946533650005432.movedfrom
Library\Bee\artifacts\movedfrom\UnityEngine.SpriteMaskModule.dll_15085143571627926654.movedfrom
Library\Bee\artifacts\movedfrom\UnityEngine.SpriteShapeModule.dll_8732053700743863443.movedfrom
Library\Bee\artifacts\movedfrom\UnityEngine.StreamingModule.dll_4972373303676757817.movedfrom
Library\Bee\artifacts\movedfrom\UnityEngine.SubstanceModule.dll_2426454444357772615.movedfrom
Library\Bee\artifacts\movedfrom\UnityEngine.SubsystemsModule.dll_4325312207168359569.movedfrom
Library\Bee\artifacts\movedfrom\UnityEngine.TerrainModule.dll_10174571129834456460.movedfrom
Library\Bee\artifacts\movedfrom\UnityEngine.TerrainPhysicsModule.dll_4832716140155979263.movedfrom
Library\Bee\artifacts\movedfrom\UnityEngine.TextCoreModule.dll_6357924784741991929.movedfrom
Library\Bee\artifacts\movedfrom\UnityEngine.TextRenderingModule.dll_1888218814232497014.movedfrom
Library\Bee\artifacts\movedfrom\UnityEngine.TilemapModule.dll_3183972412395300501.movedfrom
Library\Bee\artifacts\movedfrom\UnityEngine.TLSModule.dll_3338024144191157746.movedfrom
Library\Bee\artifacts\movedfrom\UnityEngine.UIElementsModule.dll_4631101131233855624.movedfrom
Library\Bee\artifacts\movedfrom\UnityEngine.UIElementsNativeModule.dll_14345501563041626079.movedfrom
Library\Bee\artifacts\movedfrom\UnityEngine.UIModule.dll_1610818192447648641.movedfrom
Library\Bee\artifacts\movedfrom\UnityEngine.UmbraModule.dll_9476871661938099616.movedfrom
Library\Bee\artifacts\movedfrom\UnityEngine.UNETModule.dll_4999497799175776837.movedfrom
Library\Bee\artifacts\movedfrom\UnityEngine.UnityAnalyticsModule.dll_7076854516333649262.movedfrom
Library\Bee\artifacts\movedfrom\UnityEngine.UnityConnectModule.dll_16760696673366985090.movedfrom
Library\Bee\artifacts\movedfrom\UnityEngine.UnityCurlModule.dll_14089827053806690792.movedfrom
Library\Bee\artifacts\movedfrom\UnityEngine.UnityTestProtocolModule.dll_8648821557698964054.movedfrom
Library\Bee\artifacts\movedfrom\UnityEngine.UnityWebRequestAssetBundleModule.dll_14623593188873020095.movedfrom
Library\Bee\artifacts\movedfrom\UnityEngine.UnityWebRequestAudioModule.dll_1126784111709216803.movedfrom
Library\Bee\artifacts\movedfrom\UnityEngine.UnityWebRequestModule.dll_7089232006342384871.movedfrom
Library\Bee\artifacts\movedfrom\UnityEngine.UnityWebRequestTextureModule.dll_9675878764162426968.movedfrom
Library\Bee\artifacts\movedfrom\UnityEngine.UnityWebRequestWWWModule.dll_11088498562640422484.movedfrom
Library\Bee\artifacts\movedfrom\UnityEngine.VehiclesModule.dll_3982317303064569220.movedfrom
Library\Bee\artifacts\movedfrom\UnityEngine.VFXModule.dll_12624051227687018335.movedfrom
Library\Bee\artifacts\movedfrom\UnityEngine.VideoModule.dll_3294793121060402642.movedfrom
Library\Bee\artifacts\movedfrom\UnityEngine.VirtualTexturingModule.dll_16979179833321240682.movedfrom
Library\Bee\artifacts\movedfrom\UnityEngine.VRModule.dll_7578693004052838649.movedfrom
Library\Bee\artifacts\movedfrom\UnityEngine.WindModule.dll_2957277268098921269.movedfrom
Library\Bee\artifacts\movedfrom\UnityEngine.XRModule.dll_11235267375773845079.movedfrom
Library\Bee\artifacts\movedfrom\Unity.VisualScripting.Antlr3.Runtime.dll_3854878499058453610.movedfrom